{
    "contracts": [
        {
            "Symbol": "TSLA",
            "Type": "STK",
            "Exchange": "SMART",
            "Currency": "USD",
            "PrimaryExchange": "NASDAQ"
        },
        {
            "Symbol": "NVDA",
            "Type": "STK",
            "Exchange": "SMART",
            "Currency": "USD",
            "PrimaryExchange": "NASDAQ"
        },
        {
            "Symbol": "AAPL",
            "Type": "STK",
            "Exchange": "SMART",
            "Currency": "USD",
            "PrimaryExchange": "NASDAQ"
        },
        {
            "Symbol": "MSFT",
            "Type": "STK",
            "Exchange": "SMART",
            "Currency": "USD",
            "PrimaryExchange": "NASDAQ"
        },
        {
            "Symbol": "AMD",
            "Type": "STK",
            "Exchange": "SMART",
            "Currency": "USD",
            "PrimaryExchange": "NASDAQ"
        },
        {
            "Symbol": "AMZN",
            "Type": "STK",
            "Exchange": "SMART",
            "Currency": "USD",
            "PrimaryExchange": "NASDAQ"
        },
        {
            "Symbol": "LCID",
            "Type": "STK",
            "Exchange": "SMART",
            "Currency": "USD",
            "PrimaryExchange": "NASDAQ"
        }
    ]
} 